%YAML 1.1
%TAG !u! tag:unity3d.com,2011:
--- !u!162 &1
EditorUserSettings:
  m_ObjectHideFlags: 0
  serializedVersion: 4
  m_ConfigSettings:
    RecentlyUsedSceneGuid-0:
      value: 0701065503545b0a085c5e7416250f4417151b7a797b736728784b64e3b8636a
      flags: 0
    RecentlyUsedSceneGuid-1:
      value: 5a50510557065b08585a0f20407a0f44434f4d7c7d7d7e327e2a4d60e6b83661
      flags: 0
    RecentlyUsedSceneGuid-2:
      value: 075051575007505959085d2013220b444e154d2b7a7174367c7d446ab5b3606d
      flags: 0
    RecentlyUsedSceneGuid-3:
      value: 5a08575f5207595a0f5d59741173094444164f7d7d2a23317c7a4465bbe1646d
      flags: 0
    vcSharedLogLevel:
      value: 0d5e400f0650
      flags: 0
  m_VCAutomaticAdd: 1
  m_VCDebugCom: 0
  m_VCDebugCmd: 0
  m_VCDebugOut: 0
  m_SemanticMergeMode: 2
  m_DesiredImportWorkerCount: 4
  m_StandbyImportWorkerCount: 2
  m_IdleImportWorkerShutdownDelay: 60000
  m_VCShowFailedCheckout: 1
  m_VCOverwriteFailedCheckoutAssets: 1
  m_VCProjectOverlayIcons: 1
  m_VCHierarchyOverlayIcons: 1
  m_VCOtherOverlayIcons: 1
  m_VCAllowAsyncUpdate: 1
  m_ArtifactGarbageCollection: 1
